…
<img src="stat_learning_files/figure-gfm/unnamed-chunk-6-1.png" width="90%" />

``` r
final_lasso_fit = 
  glmnet(x = x, y = y, lambda = lambda_opt)

final_lasso_fit |> 
  broom::tidy()
```

    ## # A tibble: 1,249 × 5
    ##    term         step estimate lambda dev.ratio
    ##    <chr>       <dbl>    <dbl>  <dbl>     <dbl>
    ##  1 (Intercept)     1    3086.   423.     0    
    ##  2 (Intercept)     2    2332.   385.     0.114
    ##  3 (Intercept)     3    1584.   351.     0.219
    ##  4 (Intercept)     4     902.   320.     0.306
    ##  5 (Intercept)     5     280.   291.     0.378
    ##  6 (Intercept)     6    -286.   265.     0.438
    ##  7 (Intercept)     7    -802.   242.     0.488
    ##  8 (Intercept)     8   -1272.   220.     0.529
    ##  9 (Intercept)     9   -1700.   201.     0.563
    ## 10 (Intercept)    10   -2090.   183.     0.592
    ## # ℹ 1,239 more rows
…
